Project 1: Exploratory Data Analysis
…
        death.month == "02" ~ "February", death.month == "03" ~ 
            "March", death.month == "04" ~ "April", death.month == 
            "05" ~ "May", death.month == "06" ~ "June", death.month == 
            "07" ~ "July", death.month == "08" ~ "August", death.month == 
            "09" ~ "September", death.month == "10" ~ "October", 
        death.month == "11" ~ "November", death.month == "12" ~ 
            "December"))
# add numeric dates to dataset
MC_MERGED <- MC_MERGED %>% mutate(numeric.death.month = death_month) %>% 
    mutate(numeric.death.year = death_year) %>% mutate(numeric.incident.month = incident_month) %>% 
    mutate(numeric.incident.year = incident_year)
# use arrange to order by ascending age
MC_MERGED %>% arrange(Age)

## # A tibble: 34,086 x 34
##    `Case Number` incident.month incident.day incident.year incident.time
##    <chr>         <chr>          <chr>        <chr>         <chr>        
##  1 ME2016-00941  February       22           2016          " 07:20:00 P…
##  2 ME2018-05629  November       28           2018          " 08:13:00 A…
##  3 ME2015-00387  January        26           2015          " 09:39:00 P…
##  4 ME2019-03646  August         05           2019          " 11:00:00 P…
##  5 ME2016-06129  December       21           2016          " 07:04:00 A…
##  6 ME2016-05308  November       05           2016          " 01:24:00 A…
##  7 ME2016-01974  April          13           2016          " 12:00:00 A…
##  8 ME2015-05211  December       02           2015          " 06:58:00 A…
##  9 ME2017-00159  January        10           2017          " 04:30:00 A…
## 10 ME2014-00516  September      13           2014          " 10:00:00 P…
## # … with 34,076 more rows, and 29 more variables: death.month <chr>,
## #   death.day <chr>, death.year <chr>, death.time <chr>, Age <dbl>,
## #   Gender <chr>, Race <chr>, Latino <lgl>, `Manner of Death` <chr>, `Primary
## #   Cause` <chr>, `Primary Cause Line B` <chr>, `Primary Cause Line C` <lgl>,
## #   `Secondary Cause` <chr>, `Gun Related` <lgl>, `Opioid Related` <lgl>, `Cold
## #   Related` <chr>, `Heat Related` <chr>, `Incident Address` <chr>, `Incident
## #   City` <chr>, longitude <dbl>, latitude <dbl>, `Incident Zip Code` <dbl>,
## #   `Residence City` <chr>, Residence_Zip <dbl>,
## #   months.between.incident.and.death <dbl>, numeric.death.month <dbl>,
…
MC_MERGED %>% summarise_if(is.numeric, list(Q3 = quantile), probs = 0.75, 
    na.rm = T)

## # A tibble: 1 x 10
##   Age_Q3 longitude_Q3 latitude_Q3 `Incident Zip C… Residence_Zip_Q3
##    <dbl>        <dbl>       <dbl>            <dbl>            <dbl>
## 1     65        -87.6        41.9            60637            60637
## # … with 5 more variables: months.between.incident.and.death_Q3 <dbl>,
## #   numeric.death.month_Q3 <dbl>, numeric.death.year_Q3 <dbl>,
## #   numeric.incident.month_Q3 <dbl>, numeric.incident.year_Q3 <dbl>

MC_MERGED %>% group_by(`Primary Cause`) %>% summarize(mean_age = mean(Age))

## # A tibble: 5,812 x 2
##    `Primary Cause`                          mean_age
##    <chr>                                       <dbl>
##  1 .                                              65
##  2 .ARTERIOSCLEROTIC CARDIOVASCULAR DISEASE       72
##  3 .GUNSHOT WOUND OF CHEST                        19
##  4 .HYPERTENSIVE CARDIOVASCULAR DISEASE           72
##  5 .MASSIVE GASTROINTESTINAL HEMORRHAGE           45
##  6 .MULTIPLE GUNSHOT WOUNDS                       37
##  7 .MULTIPLE INJURIES                             65
##  8 .ORGANIC CARDIOVASCULAR DISEASE                73
##  9 1, 1 DIFLUOROETHANE TOXICITY                   50
## 10 1,1 - DIFLUOROETHANE TOXICITY                  38
## # … with 5,802 more rows
…
MC_wide %>% group_by(Male, Female, Race) %>% summarize(mean_age = mean(Age))

## # A tibble: 81 x 4
## # Groups:   Male, Female [13]
##    Male     Female Race       mean_age
##    <chr>    <chr>  <chr>         <dbl>
##  1 ACCIDENT <NA>   Am. Indian     43.7
##  2 ACCIDENT <NA>   Asian          55.8
##  3 ACCIDENT <NA>   Black          50.8
##  4 ACCIDENT <NA>   Other          48.9
##  5 ACCIDENT <NA>   Unknown        63.9
##  6 ACCIDENT <NA>   White          49.6
##  7 ACCIDENT <NA>   <NA>           60.1
##  8 HOMICIDE <NA>   Am. Indian     30.5
##  9 HOMICIDE <NA>   Asian          49.7
## 10 HOMICIDE <NA>   Black          28.8
## # … with 71 more rows
…
MC_MERGED %>% group_by(`Manner of Death`, Race, Gender) %>% summarize(mean_Age = mean(Age), 
    sd_Age = sd(Age), med_Age = median(Age), var_Age = var(Age), 
    max_Age = max(Age), min_Age = min(Age))

## # A tibble: 98 x 9
## # Groups:   Manner of Death, Race [45]
##    `Manner of Deat… Race  Gender mean_Age sd_Age med_Age var_Age max_Age min_Age
##    <chr>            <chr> <chr>     <dbl>  <dbl>   <dbl>   <dbl>   <dbl>   <dbl>
##  1 ACCIDENT         Am. … Female     50.2   23.3    44.5    543.      82      30
##  2 ACCIDENT         Am. … Male       43.7   17.4    45      302.      68      23
##  3 ACCIDENT         Asian Female     64.4   25.0    70.5    625.     100       0
##  4 ACCIDENT         Asian Male       55.8   23.2    60      537.      97      16
##  5 ACCIDENT         Black Female     52.0   18.9    52      357.     101       0
##  6 ACCIDENT         Black Male       50.8   15.9    53      251.      97       0
##  7 ACCIDENT         Other Female     64.4   21.0    69      440.      92       4
##  8 ACCIDENT         Other Male       48.9   23.7    50      561.      97       1
##  9 ACCIDENT         Unkn… Female     73     15.7    70      247       90      59
## 10 ACCIDENT         Unkn… Male       63.9   18.7    66.5    349.      88      27
## # … with 88 more rows
…
MC_MERGED %>% group_by(`Manner of Death`, Race, `Incident City`, 
    Gender) %>% summarize(mean_Age = mean(Age), sd_Age = sd(Age), 
    med_Age = median(Age), var_Age = var(Age), max_Age = max(Age), 
    min_Age = min(Age))

## # A tibble: 2,521 x 10
## # Groups:   Manner of Death, Race, Incident City [1,738]
##    `Manner of Deat… Race  `Incident City` Gender mean_Age sd_Age med_Age var_Age
##    <chr>            <chr> <chr>           <chr>     <dbl>  <dbl>   <dbl>   <dbl>
##  1 ACCIDENT         Am. … CHICAGO         Female     44.5   12.0    44.5    144.
##  2 ACCIDENT         Am. … CHICAGO         Male       35.4   12.0    31      145.
##  3 ACCIDENT         Am. … DES PLAINES     Male       61     NA      61       NA 
##  4 ACCIDENT         Am. … HAZEL CREST     Female     82     NA      82       NA 
##  5 ACCIDENT         Am. … PHOENIX         Male       68     NA      68       NA 
##  6 ACCIDENT         Am. … TINLEY PARK     Female     30     NA      30       NA 
##  7 ACCIDENT         Asian ADDISON         Female     86     NA      86       NA 
##  8 ACCIDENT         Asian ARLINGTON HEIG… Female     36.5   34.6    36.5   1200.
##  9 ACCIDENT         Asian ARLINGTON HEIG… Male       48.3   28.9    54      836.
## 10 ACCIDENT         Asian AURORA          Male       48     NA      48       NA 
## # … with 2,511 more rows, and 2 more variables: max_Age <dbl>, min_Age <dbl>
…
